[{"id":1,"name":"Brittan Rois","email":"brois0@unicef.org","phone":"+84 745 807 765","address":"41 Le Duan","area":"Hai Chau","utype":"Saleman","created_at":"01/22/15 17:15","enable":1},
{"id":2,"name":"Matthew Junifer","email":"mjunifer1@buzzfeed.com","phone":"+84 993 722 008","address":"41 Le Duan","area":"Hai Chau","utype":"Saleman","created_at":"01/22/15 17:15","enable":0},
{"id":3,"name":"Finlay Baylay","email":"fbaylay2@purevolume.com","phone":"+84 232 355 569","address":"41 Le Duan","area":"Son Tra","utype":"Shop","created_at":"01/22/15 17:15"},
{"id":4,"name":"Beryle Monelli","email":"bmonelli3@amazonaws.com","phone":"+84 734 876 127","address":"41 Le Duan","area":"Lien Chieu","utype":"Saleman","created_at":"01/22/15 17:15","enable":1},
{"id":5,"name":"Ilario Shoppee","email":"ishoppee4@webmd.com","phone":"+84 410 442 083","address":"41 Le Duan","area":"Cam Le","utype":"Shop","created_at":"01/22/15 17:15"},
{"id":6,"name":"Guglielma Haking","email":"ghaking5@icio.us","phone":"+84 722 902 706","address":"41 Le Duan","area":"Thanh Khe","utype":"Shop","created_at":"01/22/15 17:15"},
{"id":7,"name":"Celle Acum","email":"cacum6@scribd.com","phone":"+84 805 547 640","address":"41 Le Duan","area":"Hai Chau","utype":"Saleman","created_at":"01/22/15 17:15"},
{"id":8,"name":"Ailey Haig","email":"ahaig7@live.com","phone":"+84 623 158 085","address":"41 Le Duan","area":"Ngu Hanh Son","utype":"Shop","created_at":"01/22/15 17:15"},
{"id":9,"name":"Ebonee Robardet","email":"erobardet8@google.co.jp","phone":"+84 406 595 538","address":"41 Le Duan","area":"Son Tra","utype":"Shop","created_at":"01/22/15 17:15"},
{"id":10,"name":"Nancy Hallatt","email":"nhallatt9@tamu.edu","phone":"+84 194 283 223","address":"41 Le Duan","area":"Lien Chieu","utype":"Saleman","created_at":"01/22/15 17:15"},
{"id":11,"name":"Savina Gardener","email":"sgardenera@mozilla.com","phone":"+84 494 626 847","address":"41 Le Duan","area":"Hai Chau","utype":"Shop","created_at":"01/22/15 17:15"},
{"id":12,"name":"Walliw Berard","email":"wberardb@state.tx.us","phone":"+84 884 996 703","address":"41 Le Duan","area":"Cam Le","utype":"Shop","created_at":"01/22/15 17:15"},
{"id":13,"name":"Bernita Moniker","email":"bmonikerc@g.co","phone":"+84 122 281 005","address":"41 Le Duan","area":"Lien Chieu","utype":"Saleman","created_at":"01/22/15 17:15"},
{"id":14,"name":"Devlen MacGibbon","email":"dmacgibbond@mashable.com","phone":"+84 550 422 564","address":"41 Le Duan","area":"Son Tra","utype":"Shop","created_at":"01/22/15 17:15"},
{"id":15,"name":"Terri O'Nion","email":"tonione@msn.com","phone":"+84 213 246 001","address":"41 Le Duan","area":"Thanh Khe","utype":"Shop","created_at":"01/22/15 17:15"},
{"id":16,"name":"Anselm Cavilla","email":"acavillaf@live.com","phone":"+84 941 369 625","address":"41 Le Duan","area":"Ngu Hanh Son","utype":"Saleman","created_at":"01/22/15 17:15"},
{"id":17,"name":"Frances Wyndham","email":"fwyndhamg@nbcnews.com","phone":"+84 922 171 017","address":"41 Le Duan","area":"Hai Chau","utype":"Shop","created_at":"01/22/15 17:15"},
{"id":18,"name":"Bennett Skermer","email":"bskermerh@reverbnation.com","phone":"+84 598 223 882","address":"41 Le Duan","area":"Cam Le","utype":"Saleman","created_at":"01/22/15 17:15"},
{"id":19,"name":"Valentine Lambertazzi","email":"vlambertazzii@eepurl.com","phone":"+84 633 380 252","address":"41 Le Duan","area":"Son Tra","utype":"Shop","created_at":"01/22/15 17:15"},
{"id":20,"name":"Tremayne Tolchar","email":"ttolcharj@auda.org.au","phone":"+84 445 679 332","address":"41 Le Duan","area":"Lien Chieu","utype":"Shop","created_at":"01/22/15 17:15"},
{"id":21,"name":"Estevan Jahncke","email":"ejahnckek@ox.ac.uk","phone":"+84 856 496 100","address":"41 Le Duan","area":"Hai Chau","utype":"Saleman","created_at":"01/22/15 17:15"},
{"id":22,"name":"Inness Ranyelld","email":"iranyelldl@i2i.jp","phone":"+84 913 964 537","address":"41 Le Duan","area":"Thanh Khe","utype":"Saleman","created_at":"01/22/15 17:15"},
{"id":23,"name":"Ann Boise","email":"aboisem@nhs.uk","phone":"+84 958 752 121","address":"41 Le Duan","area":"Ngu Hanh Son","utype":"Shop","created_at":"01/22/15 17:15"},
{"id":24,"name":"Reynard Goodacre","email":"rgoodacren@opera.com","phone":"+84 860 266 940","address":"41 Le Duan","area":"Hai Chau","utype":"Shop","created_at":"01/22/15 17:15"},
{"id":25,"name":"Corrie Guerro","email":"cguerroo@ca.gov","phone":"+84 699 529 427","address":"41 Le Duan","area":"Thanh Khe","utype":"Shop","created_at":"01/22/15 17:15"},
{"id":26,"name":"Orelee Fonteyne","email":"ofonteynep@baidu.com","phone":"+84 910 656 153","address":"41 Le Duan","area":"Hai Chau","utype":"Saleman","created_at":"01/22/15 17:15"},
{"id":27,"name":"Lil Lakeman","email":"llakemanq@weather.com","phone":"+84 799 528 568","address":"41 Le Duan","area":"Ngu Hanh Son","utype":"Shop","created_at":"01/22/15 17:15"},
{"id":28,"name":"Teddie Mapstone","email":"tmapstoner@guardian.co.uk","phone":"+84 872 475 601","address":"41 Le Duan","area":"Lien Chieu","utype":"Shop","created_at":"01/22/15 17:15"},
{"id":29,"name":"Paolo Bonds","email":"pbondss@washingtonpost.com","phone":"+84 863 508 497","address":"41 Le Duan","area":"Hai Chau","utype":"Saleman","created_at":"01/22/15 17:15"},
{"id":30,"name":"Kayla Gallafant","email":"kgallafantt@technorati.com","phone":"+84 755 903 395","address":"41 Le Duan","area":"Cam Le","utype":"Shop","created_at":"01/22/15 17:15"},
{"id":31,"name":"Maisie Mikalski","email":"mmikalskiu@alexa.com","phone":"+84 366 853 644","address":"41 Le Duan","area":"Son Tra","utype":"Saleman","created_at":"01/22/15 17:15"},
{"id":32,"name":"Xymenes Duggon","email":"xduggonv@seattletimes.com","phone":"+84 818 346 321","address":"41 Le Duan","area":"Hai Chau","utype":"Shop","created_at":"01/22/15 17:15"},
{"id":33,"name":"Jakie Colles","email":"jcollesw@ifeng.com","phone":"+84 126 679 567","address":"41 Le Duan","area":"Ngu Hanh Son","utype":"Shop","created_at":"01/22/15 17:15"},
{"id":34,"name":"Lew Colton","email":"lcoltonx@wikimedia.org","phone":"+84 522 893 829","address":"41 Le Duan","area":"Thanh Khe","utype":"Shop","created_at":"01/22/15 17:15"},
{"id":35,"name":"Theodora Barstow","email":"tbarstowy@pcworld.com","phone":"+84 673 109 793","address":"41 Le Duan","area":"Cam Le","utype":"Saleman","created_at":"01/22/15 17:15"},
{"id":36,"name":"Ulric Kneller","email":"uknellerz@nbcnews.com","phone":"+84 264 829 982","address":"41 Le Duan","area":"Hai Chau","utype":"Shop","created_at":"01/22/15 17:15"},
{"id":37,"name":"Ellwood Bearward","email":"ebearward10@reference.com","phone":"+84 171 197 985","address":"41 Le Duan","area":"Son Tra","utype":"Shop","created_at":"01/22/15 17:15"},
{"id":38,"name":"Shalna Voss","email":"svoss11@buzzfeed.com","phone":"+84 264 158 814","address":"41 Le Duan","area":"Hai Chau","utype":"Saleman","created_at":"01/22/15 17:15"},
{"id":39,"name":"Holly Iacovacci","email":"hiacovacci12@vk.com","phone":"+84 667 109 968","address":"41 Le Duan","area":"Ngu Hanh Son","utype":"Shop","created_at":"01/22/15 17:15"},
{"id":40,"name":"Nicolle Haggis","email":"nhaggis13@huffingtonpost.com","phone":"+84 607 540 004","address":"41 Le Duan","area":"Lien Chieu","utype":"Saleman","created_at":"01/22/15 17:15"},
{"id":41,"name":"Janetta Stanett","email":"jstanett14@wiley.com","phone":"+84 901 510 858","address":"41 Le Duan","area":"Ngu Hanh Son","utype":"Shop","created_at":"01/22/15 17:15"},
{"id":42,"name":"Welch Goodin","email":"wgoodin15@examiner.com","phone":"+84 984 762 075","address":"41 Le Duan","area":"Thanh Khe","utype":"Saleman","created_at":"01/22/15 17:15"},
{"id":43,"name":"Dominga De Bell","email":"dde16@usatoday.com","phone":"+84 139 494 185","address":"41 Le Duan","area":"Ngu Hanh Son","utype":"Shop","created_at":"01/22/15 17:15"},
{"id":44,"name":"Elga Twamley","email":"etwamley17@nps.gov","phone":"+84 421 209 003","address":"41 Le Duan","area":"Hai Chau","utype":"Shop","created_at":"01/22/15 17:15"},
{"id":45,"name":"Annamaria Tuison","email":"atuison18@cpanel.net","phone":"+84 551 840 861","address":"41 Le Duan","area":"Ngu Hanh Son","utype":"Saleman","created_at":"01/22/15 17:15"},
{"id":46,"name":"Rutter Hatrick","email":"rhatrick19@mayoclinic.com","phone":"+84 134 141 104","address":"41 Le Duan","area":"Cam Le","utype":"Shop","created_at":"01/22/15 17:15"},
{"id":47,"name":"Teddy Crannage","email":"tcrannage1a@uiuc.edu","phone":"+84 347 309 989","address":"41 Le Duan","area":"Son Tra","utype":"Shop","created_at":"01/22/15 17:15"},
{"id":48,"name":"Gaspard Hannabus","email":"ghannabus1b@wiley.com","phone":"+84 746 761 629","address":"41 Le Duan","area":"Thanh Khe","utype":"Saleman","created_at":"01/22/15 17:15"},
{"id":49,"name":"Kanya Arnolds","email":"karnolds1c@sbwire.com","phone":"+84 569 892 749","address":"41 Le Duan","area":"Hai Chau","utype":"Shop","created_at":"01/22/15 17:15"},
{"id":50,"name":"Codi Nazer","email":"cnazer1d@rediff.com","phone":"+84 703 933 396","address":"41 Le Duan","area":"Ngu Hanh Son","utype":"Shop","created_at":"01/22/15 17:15"},
{"id":51,"name":"Stacy Acom","email":"sacom1e@addtoany.com","phone":"+84 724 289 246","address":"41 Le Duan","area":"Thanh Khe","utype":"Saleman","created_at":"01/22/15 17:15"},
{"id":52,"name":"Cory Blondin","email":"cblondin1f@fema.gov","phone":"+84 724 810 839","address":"41 Le Duan","area":"Son Tra","utype":"Shop","created_at":"01/22/15 17:15"},
{"id":53,"name":"Weston Shorland","email":"wshorland1g@histats.com","phone":"+84 515 873 675","address":"41 Le Duan","area":"Lien Chieu","utype":"Saleman","created_at":"01/22/15 17:15"},
{"id":54,"name":"Tammara Mannering","email":"tmannering1h@etsy.com","phone":"+84 985 540 341","address":"41 Le Duan","area":"Hai Chau","utype":"Shop","created_at":"01/22/15 17:15"},
{"id":55,"name":"Javier Agglio","email":"jagglio1i@slideshare.net","phone":"+84 659 330 270","address":"41 Le Duan","area":"Thanh Khe","utype":"Shop","created_at":"01/22/15 17:15"},
{"id":56,"name":"Rosalia Schoales","email":"rschoales1j@parallels.com","phone":"+84 272 227 958","address":"41 Le Duan","area":"Cam Le","utype":"Saleman","created_at":"01/22/15 17:15"},
{"id":57,"name":"Carla Firsby","email":"cfirsby1k@xrea.com","phone":"+84 238 356 094","address":"41 Le Duan","area":"Ngu Hanh Son","utype":"Shop","created_at":"01/22/15 17:15"},
{"id":58,"name":"Taite Oakenford","email":"toakenford1l@sun.com","phone":"+84 425 742 591","address":"41 Le Duan","area":"Thanh Khe","utype":"Saleman","created_at":"01/22/15 17:15"},
{"id":59,"name":"Robinet Rounds","email":"rrounds1m@arizona.edu","phone":"+84 554 677 118","address":"41 Le Duan","area":"Ngu Hanh Son","utype":"Shop","created_at":"01/22/15 17:15"},
{"id":60,"name":"Christalle Ciraldo","email":"cciraldo1n@google.com","phone":"+84 906 510 232","address":"41 Le Duan","area":"Hai Chau","utype":"Shop","created_at":"01/22/15 17:15"},
{"id":61,"name":"Valaree Stocker","email":"vstocker1o@census.gov","phone":"+84 922 785 899","address":"41 Le Duan","area":"Son Tra","utype":"Saleman","created_at":"01/22/15 17:15"},
{"id":62,"name":"Consuelo Sutcliff","email":"csutcliff1p@gmpg.org","phone":"+84 513 592 428","address":"41 Le Duan","area":"Lien Chieu","utype":"Shop","created_at":"01/22/15 17:15"},
{"id":63,"name":"Nike Lincke","email":"nlincke1q@china.com.cn","phone":"+84 383 930 388","address":"41 Le Duan","area":"Hai Chau","utype":"Shop","created_at":"01/22/15 17:15"},
{"id":64,"name":"Shep Quilligan","email":"squilligan1r@cnn.com","phone":"+84 794 209 835","address":"41 Le Duan","area":"Ngu Hanh Son","utype":"Shop","created_at":"01/22/15 17:15"},
{"id":65,"name":"Wallie Erwin","email":"werwin1s@delicious.com","phone":"+84 581 583 609","address":"41 Le Duan","area":"Thanh Khe","utype":"Saleman","created_at":"01/22/15 17:15"},
{"id":66,"name":"Zechariah Attwood","email":"zattwood1t@nifty.com","phone":"+84 401 511 444","address":"41 Le Duan","area":"Hai Chau","utype":"Shop","created_at":"01/22/15 17:15"},
{"id":67,"name":"Stevana Tebald","email":"stebald1u@house.gov","phone":"+84 408 617 181","address":"41 Le Duan","area":"Cam Le","utype":"Saleman","created_at":"01/22/15 17:15"},
{"id":68,"name":"Palm BURWIN","email":"pburwin1v@ameblo.jp","phone":"+84 421 758 843","address":"41 Le Duan","area":"Ngu Hanh Son","utype":"Shop","created_at":"01/22/15 17:15"},
{"id":69,"name":"Sharl Purdey","email":"spurdey1w@arstechnica.com","phone":"+84 365 813 051","address":"41 Le Duan","area":"Son Tra","utype":"Saleman","created_at":"01/22/15 17:15"},
{"id":70,"name":"Aloin Pembry","email":"apembry1x@google.ru","phone":"+84 339 318 176","address":"41 Le Duan","area":"Hai Chau","utype":"Saleman","created_at":"01/22/15 17:15"},
{"id":71,"name":"Karoline Daud","email":"kdaud1y@ted.com","phone":"+84 517 473 728","address":"41 Le Duan","area":"Thanh Khe","utype":"Shop","created_at":"01/22/15 17:15"},
{"id":72,"name":"Mortie Futter","email":"mfutter1z@yellowbook.com","phone":"+84 173 298 740","address":"41 Le Duan","area":"Hai Chau","utype":"Saleman","created_at":"01/22/15 17:15"},
{"id":73,"name":"Schuyler Hinkens","email":"shinkens20@shareasale.com","phone":"+84 657 950 532","address":"41 Le Duan","area":"Lien Chieu","utype":"Shop","created_at":"01/22/15 17:15"},
{"id":74,"name":"Jozef McMurty","email":"jmcmurty21@fotki.com","phone":"+84 491 202 200","address":"41 Le Duan","area":"Cam Le","utype":"Saleman","created_at":"01/22/15 17:15"},
{"id":75,"name":"Nara McGunley","email":"nmcgunley22@qq.com","phone":"+84 792 752 796","address":"41 Le Duan","area":"Son Tra","utype":"Shop","created_at":"01/22/15 17:15"},
{"id":76,"name":"Marleah Timson","email":"mtimson23@nature.com","phone":"+84 211 545 147","address":"41 Le Duan","area":"Ngu Hanh Son","utype":"Saleman","created_at":"01/22/15 17:15"},
{"id":77,"name":"Ketty Blucher","email":"kblucher24@booking.com","phone":"+84 548 699 155","address":"41 Le Duan","area":"Hai Chau","utype":"Shop","created_at":"01/22/15 17:15"},
{"id":78,"name":"Murray Arndtsen","email":"marndtsen25@wp.com","phone":"+84 586 415 966","address":"41 Le Duan","area":"Cam Le","utype":"Shop","created_at":"01/22/15 17:15"},
{"id":79,"name":"Benson Boothby","email":"bboothby26@simplemachines.org","phone":"+84 161 829 247","address":"41 Le Duan","area":"Ngu Hanh Son","utype":"Saleman","created_at":"01/22/15 17:15"},
{"id":80,"name":"Shaylah Gerrit","email":"sgerrit27@sitemeter.com","phone":"+84 573 121 941","address":"41 Le Duan","area":"Hai Chau","utype":"Saleman","created_at":"01/22/15 17:15"},
{"id":81,"name":"Betteann Hawyes","email":"bhawyes28@un.org","phone":"+84 545 455 770","address":"41 Le Duan","area":"Thanh Khe","utype":"Shop","created_at":"01/22/15 17:15"},
{"id":82,"name":"Reynolds Slemming","email":"rslemming29@bloglines.com","phone":"+84 740 215 983","address":"41 Le Duan","area":"Son Tra","utype":"Saleman","created_at":"01/22/15 17:15"},
{"id":83,"name":"Arlen Abernethy","email":"aabernethy2a@google.nl","phone":"+84 155 902 813","address":"41 Le Duan","area":"Hai Chau","utype":"Shop","created_at":"01/22/15 17:15"},
{"id":84,"name":"Bernardine Eade","email":"beade2b@columbia.edu","phone":"+84 498 368 373","address":"41 Le Duan","area":"Cam Le","utype":"Saleman","created_at":"01/22/15 17:15"},
{"id":85,"name":"Ian Causley","email":"icausley2c@virginia.edu","phone":"+84 992 294 197","address":"41 Le Duan","area":"Hai Chau","utype":"Shop","created_at":"01/22/15 17:15"},
{"id":86,"name":"Abagail Garth","email":"agarth2d@wiley.com","phone":"+84 627 502 870","address":"41 Le Duan","area":"Ngu Hanh Son","utype":"Shop","created_at":"01/22/15 17:15"},
{"id":87,"name":"Tome Sessuns","email":"tsessuns2e@desdev.cn","phone":"+84 890 389 195","address":"41 Le Duan","area":"Thanh Khe","utype":"Saleman","created_at":"01/22/15 17:15"},
{"id":88,"name":"Sly Godbold","email":"sgodbold2f@miitbeian.gov.cn","phone":"+84 574 510 588","address":"41 Le Duan","area":"Lien Chieu","utype":"Saleman","created_at":"01/22/15 17:15"},
{"id":89,"name":"Lane Wheatcroft","email":"lwheatcroft2g@netlog.com","phone":"+84 802 453 790","address":"41 Le Duan","area":"Hai Chau","utype":"Shop","created_at":"01/22/15 17:15"},
{"id":90,"name":"Bard Scutchin","email":"bscutchin2h@usatoday.com","phone":"+84 823 166 095","address":"41 Le Duan","area":"Cam Le","utype":"Shop","created_at":"01/22/15 17:15"},
{"id":91,"name":"Alister Batten","email":"abatten2i@google.com.au","phone":"+84 560 404 745","address":"41 Le Duan","area":"Hai Chau","utype":"Saleman","created_at":"01/22/15 17:15"},
{"id":92,"name":"Blanche Emery","email":"bemery2j@loc.gov","phone":"+84 814 263 404","address":"41 Le Duan","area":"Ngu Hanh Son","utype":"Shop","created_at":"01/22/15 17:15"},
{"id":93,"name":"Kyla Bertomieu","email":"kbertomieu2k@biglobe.ne.jp","phone":"+84 287 696 776","address":"41 Le Duan","area":"Son Tra","utype":"Saleman","created_at":"01/22/15 17:15"},
{"id":94,"name":"Hugh Livick","email":"hlivick2l@wiley.com","phone":"+84 585 419 246","address":"41 Le Duan","area":"Thanh Khe","utype":"Shop","created_at":"01/22/15 17:15"},
{"id":95,"name":"Emera Daintry","email":"edaintry2m@ustream.tv","phone":"+84 371 708 760","address":"41 Le Duan","area":"Hai Chau","utype":"Shop","created_at":"01/22/15 17:15"},
{"id":96,"name":"Arnuad Dinneen","email":"adinneen2n@sitemeter.com","phone":"+84 722 599 377","address":"41 Le Duan","area":"Ngu Hanh Son","utype":"Saleman","created_at":"01/22/15 17:15"},
{"id":97,"name":"Krystalle Whittlesea","email":"kwhittlesea2o@list-manage.com","phone":"+84 122 286 595","address":"41 Le Duan","area":"Ngu Hanh Son","utype":"Saleman","created_at":"01/22/15 17:15"},
{"id":98,"name":"Jessie Yeudall","email":"jyeudall2p@wikimedia.org","phone":"+84 154 383 316","address":"41 Le Duan","area":"Hai Chau","utype":"Shop","created_at":"01/22/15 17:15"},
{"id":99,"name":"Carlin Baden","email":"cbaden2q@shop-pro.jp","phone":"+84 702 332 827","address":"41 Le Duan","area":"Thanh Khe","utype":"Shop","created_at":"01/22/15 17:15"},
{"id":100,"name":"Abagael McVrone","email":"amcvrone2r@ihg.com","phone":"+84 630 450 614","address":"41 Le Duan","area":"Ngu Hanh Son","utype":"Shop","created_at":"01/22/15 17:15"}]